<svg width="1440" height="432" viewBox="0 0 1440 432" fill="none" xmlns="http://www.w3.org/2000/svg">
<path opacity="0.1" fill-rule="evenodd" clip-rule="evenodd" d="M1440 432L0.00012207 432C553.259 432 1057.85 323.064 1440 144L1440 432Z" fill="#CCBDB2" fill-opacity="0.9"/>
<path opacity="0.1" fill-rule="evenodd" clip-rule="evenodd" d="M0.00015469 166L0.00012207 432L1440 432L1440 382C844.71 382 318.512 296.637 0.00015469 166Z" fill="#CCBDB2" fill-opacity="0.9"/>
<path opacity="0.1" fill-rule="evenodd" clip-rule="evenodd" d="M1440 432L576 432C894.113 432 1190.6 273.45 1440 -9.15527e-05L1440 432Z" fill="#CCBDB2" fill-opacity="0.9"/>
</svg>
